<?xml version="1.0" encoding="UTF-8"?>
<!DOCTYPE svg PUBLIC "-//W3C//DTD SVG 1.1//EN" "http://www.w3.org/Graphics/SVG/1.1/DTD/svg11.dtd">
<!-- Creator: CorelDRAW X6 -->
<svg xmlns="http://www.w3.org/2000/svg" xml:space="preserve" width="77.9712mm" height="57.1936mm" version="1.1" style="shape-rendering:geometricPrecision; text-rendering:geometricPrecision; image-rendering:optimizeQuality; fill-rule:evenodd; clip-rule:evenodd"
viewBox="0 0 7751 5685"
 xmlns:xlink="http://www.w3.org/1999/xlink">
 <defs>
  <style type="text/css">
   <![CDATA[
    .str0 {stroke:#2B2A29;stroke-width:7.57469}
    .str1 {stroke:#C5C6C6;stroke-width:49.7027}
    .fil2 {fill:none;fill-rule:nonzero}
    .fil4 {fill:#2B2A29}
    .fil1 {fill:#B62C33}
    .fil3 {fill:#2B2A29;fill-rule:nonzero}
    .fil0 {fill:#B62C33;fill-rule:nonzero}
   ]]>
  </style>
   <clipPath id="id0" style="clip-rule:nonzero">
    <path d="M7219 1293c-168,0 -290,47 -365,140 -75,93 -112,221 -112,383 0,79 9,150 28,214 19,64 46,119 83,166 37,46 83,82 139,108 56,25 120,38 194,38 40,0 74,-1 103,-2 29,-2 54,-5 75,-9l0 -558 361 0 0 794c-43,17 -113,35 -208,54 -96,19 -214,29 -354,29 -120,0 -230,-19 -328,-56 -96,-36 -179,-89 -247,-158 -11,14 -22,27 -34,39 -54,56 -123,100 -206,131 -83,31 -182,46 -296,46 -113,0 -210,-16 -292,-47 -82,-32 -149,-76 -203,-132 -53,-56 -93,-123 -118,-201 -25,-78 -38,-164 -38,-258l0 -998 361 0 0 968c0,65 7,120 22,166 15,46 35,83 60,111 25,29 56,49 93,61 36,12 76,19 119,19 88,0 159,-27 214,-81 55,-54 82,-146 82,-275l0 -968 361 0 0 90c44,-29 91,-53 142,-72 98,-37 203,-56 314,-56 76,0 144,5 205,15 61,10 113,22 157,35 44,13 80,27 109,41 29,14 49,25 61,32l-104 289c-49,-26 -106,-49 -170,-68 -64,-19 -134,-29 -210,-29z"/>
   </clipPath>
 </defs>
 <g id="Ebene_x0020_1">
  <metadata id="CorelCorpID_0Corel-Layer"/>
  <path class="fil0" d="M7219 1293c-168,0 -290,47 -365,140 -75,93 -112,221 -112,383 0,79 9,150 28,214 19,64 46,119 83,166 37,46 83,82 139,108 56,25 120,38 194,38 40,0 74,-1 103,-2 29,-2 54,-5 75,-9l0 -558 361 0 0 794c-43,17 -113,35 -208,54 -96,19 -214,29 -354,29 -120,0 -230,-19 -328,-56 -96,-36 -179,-89 -247,-158 -11,14 -22,27 -34,39 -54,56 -123,100 -206,131 -83,31 -182,46 -296,46 -113,0 -210,-16 -292,-47 -82,-32 -149,-76 -203,-132 -53,-56 -93,-123 -118,-201 -25,-78 -38,-164 -38,-258l0 -998 361 0 0 968c0,65 7,120 22,166 15,46 35,83 60,111 25,29 56,49 93,61 36,12 76,19 119,19 88,0 159,-27 214,-81 55,-54 82,-146 82,-275l0 -968 361 0 0 90c44,-29 91,-53 142,-72 98,-37 203,-56 314,-56 76,0 144,5 205,15 61,10 113,22 157,35 44,13 80,27 109,41 29,14 49,25 61,32l-104 289c-49,-26 -106,-49 -170,-68 -64,-19 -134,-29 -210,-29z"/>
  <g style="clip-path:url(#id0)">
   <g id="_1009892352">
    <rect class="fil1 str0" x="4991" y="736" width="3248" height="2125"/>
   </g>
  </g>
  <path class="fil2 str1" d="M7219 1293c-168,0 -290,47 -365,140 -75,93 -112,221 -112,383 0,79 9,150 28,214 19,64 46,119 83,166 37,46 83,82 139,108 56,25 120,38 194,38 40,0 74,-1 103,-2 29,-2 54,-5 75,-9l0 -558 361 0 0 794c-43,17 -113,35 -208,54 -96,19 -214,29 -354,29 -120,0 -230,-19 -328,-56 -96,-36 -179,-89 -247,-158 -11,14 -22,27 -34,39 -54,56 -123,100 -206,131 -83,31 -182,46 -296,46 -113,0 -210,-16 -292,-47 -82,-32 -149,-76 -203,-132 -53,-56 -93,-123 -118,-201 -25,-78 -38,-164 -38,-258l0 -998 361 0 0 968c0,65 7,120 22,166 15,46 35,83 60,111 25,29 56,49 93,61 36,12 76,19 119,19 88,0 159,-27 214,-81 55,-54 82,-146 82,-275l0 -968 361 0 0 90c44,-29 91,-53 142,-72 98,-37 203,-56 314,-56 76,0 144,5 205,15 61,10 113,22 157,35 44,13 80,27 109,41 29,14 49,25 61,32l-104 289c-49,-26 -106,-49 -170,-68 -64,-19 -134,-29 -210,-29z"/>
  <path class="fil3" d="M2586 3474c0,24 -10,42 -30,54 -20,12 -39,20 -59,24 -55,9 -120,19 -195,31 -75,12 -154,25 -236,36 -83,12 -168,23 -257,31 -89,8 -174,12 -257,12 -209,0 -406,-36 -593,-109 -187,-73 -351,-185 -493,-337 -142,-152 -255,-342 -340,-573 -85,-230 -127,-503 -127,-818 0,-283 39,-537 118,-762 79,-224 186,-415 322,-573 136,-157 294,-278 475,-363 181,-85 372,-127 573,-127 165,0 334,11 505,33 171,22 340,39 505,51 20,0 36,9 50,28 14,18 21,34 21,51l0 917c0,55 -16,83 -47,83 -28,0 -47,-22 -59,-65 -35,-146 -78,-272 -127,-378 -49,-106 -111,-194 -186,-263 -75,-69 -165,-120 -272,-154 -106,-33 -232,-50 -378,-50 -142,0 -263,27 -363,80 -100,53 -185,123 -254,212 -69,89 -124,190 -165,306 -41,115 -74,235 -97,358 -24,124 -39,247 -47,371 -8,124 -12,236 -12,339 0,160 15,328 44,503 30,174 82,335 156,482 75,147 177,268 307,362 130,93 295,141 496,141 165,0 301,-17 407,-50 106,-33 194,-84 263,-151 69,-67 124,-152 165,-254 41,-102 80,-222 115,-360 4,-20 12,-33 24,-41 12,-8 24,-12 35,-12 35,0 53,24 53,71l-41 864z"/>
  <path id="1" class="fil3" d="M3664 1939c0,9 -4,18 -12,25 -8,7 -16,11 -23,11l-480 -7 14 473c0,23 -12,35 -35,35l-316 0c-9,0 -19,-4 -28,-11 -9,-7 -14,-15 -14,-25l14 -473 -473 7c-9,0 -19,-4 -28,-11 -9,-7 -14,-15 -14,-25l0 -210c0,-12 5,-20 14,-26 9,-6 16,-9 21,-9l480 7 -14 -473c0,-23 12,-35 35,-35l316 0c12,0 22,3 30,9 8,6 12,15 12,26l-14 473 473 -7c12,0 22,3 30,9 8,6 12,15 12,26l0 210z"/>
  <path id="2" class="fil3" d="M5221 1939c0,9 -4,18 -12,25 -8,7 -16,11 -23,11l-480 -7 14 473c0,23 -12,35 -35,35l-316 0c-9,0 -19,-4 -28,-11 -9,-7 -14,-15 -14,-25l14 -473 -473 7c-9,0 -19,-4 -28,-11 -9,-7 -14,-15 -14,-25l0 -210c0,-12 5,-20 14,-26 9,-6 16,-9 21,-9l480 7 -14 -473c0,-23 12,-35 35,-35l316 0c12,0 22,3 30,9 8,6 12,15 12,26l-14 473 473 -7c12,0 22,3 30,9 8,6 12,15 12,26l0 210z"/>
  <path class="fil3" d="M3360 4240c0,7 -7,10 -20,10l-299 0c-13,0 -20,-3 -20,-9 0,-6 7,-11 20,-15l46 -13c7,-2 11,-6 12,-14 2,-8 0,-14 -4,-19l-236 -296 -50 44c-7,5 -10,11 -10,20l1 217c0,15 4,27 12,37 8,10 18,16 29,18l38 7c13,3 20,8 20,13 0,7 -7,10 -20,10l-260 0c-13,0 -20,-3 -20,-9 0,-4 2,-7 6,-9 4,-2 9,-4 13,-6l38 -7c11,-2 21,-7 29,-17 8,-10 12,-22 12,-38l1 -283 -1 -282c0,-16 -4,-28 -12,-37 -8,-9 -17,-15 -29,-17l-50 -7c-13,-2 -20,-6 -20,-13 0,-7 7,-10 20,-10l262 0c13,0 20,3 20,9 0,7 -7,11 -20,15l-31 7c-11,2 -21,9 -28,18 -7,10 -11,22 -11,37l-1 255c0,3 1,6 4,7 3,1 6,1 8,-2l256 -265c11,-11 16,-21 16,-31 0,-11 -5,-19 -15,-25 -6,-3 -11,-6 -15,-7 -4,-1 -7,-4 -7,-8 0,-4 2,-7 6,-9 4,-2 9,-2 16,-2l192 0c13,0 20,3 20,9 0,6 -7,10 -20,13 -14,2 -30,9 -47,20 -18,11 -30,21 -39,29l-258 245 303 337c11,13 26,25 44,36 18,11 36,18 55,20l21 2c13,2 20,6 20,13z"/>
  <path id="1" class="fil3" d="M3736 4001c0,-11 -4,-14 -13,-10l-160 47c-40,11 -60,35 -60,71 0,32 8,58 23,77 15,20 39,29 73,29 19,0 37,-2 53,-7 17,-4 31,-11 44,-20 13,-9 23,-18 30,-29 7,-11 11,-23 11,-37l0 -121zm184 239c0,7 -7,10 -20,10l-121 0c-6,0 -10,-1 -13,-4 -3,-3 -6,-6 -7,-9l-10 -17c-3,-6 -7,-9 -12,-9 -4,0 -7,1 -9,2 -2,1 -4,3 -7,4 -44,30 -95,45 -153,45 -42,0 -78,-11 -107,-33 -29,-22 -43,-55 -43,-99 0,-23 6,-46 19,-69 13,-23 34,-42 66,-56 23,-10 50,-18 81,-23 31,-6 61,-13 89,-22 18,-6 33,-13 46,-21 13,-9 19,-22 19,-41l0 -48c0,-15 -4,-27 -11,-37 -7,-10 -17,-18 -28,-24 -11,-6 -24,-11 -37,-13 -13,-3 -25,-4 -36,-4 -47,0 -80,10 -101,31 -21,20 -36,53 -46,98 -2,4 -4,6 -9,6 -5,0 -7,-2 -7,-7l-1 -147c0,-8 4,-12 12,-12 26,-2 52,-4 77,-9 25,-4 51,-6 77,-6 30,0 58,3 82,9 24,6 45,16 62,30 17,14 30,33 39,56 9,23 13,52 13,88l0 258c0,16 4,28 11,37 7,9 17,15 28,18l37 7c13,3 20,8 20,13z"/>
  <path id="2" class="fil3" d="M4389 3845c-2,13 -6,20 -12,20 -7,0 -11,-4 -12,-13 -2,-9 -4,-16 -6,-22 -7,-15 -16,-25 -27,-30 -11,-5 -27,-8 -45,-8 -21,0 -41,6 -58,17 -18,11 -32,25 -42,42 -4,7 -8,15 -10,24 -3,10 -4,19 -4,28l0 261c0,16 4,28 12,37 8,9 17,15 29,18l26 7c13,4 20,9 20,13 0,7 -7,10 -20,10l-219 0c-13,0 -20,-3 -20,-9 0,-6 7,-11 20,-15l26 -7c11,-3 21,-9 28,-18 7,-9 11,-21 11,-37l0 -344c0,-16 -4,-28 -12,-37 -8,-9 -17,-15 -29,-17l-38 -7c-13,-3 -20,-8 -20,-13 0,-7 7,-10 20,-10l122 0c11,0 17,5 20,15l18 58c2,4 4,6 9,6 2,0 4,-1 6,-4 38,-58 92,-87 160,-87 7,0 14,1 21,2 8,2 14,3 20,5 4,2 9,4 13,7 5,3 7,7 6,12l-12 97z"/>
  <path id="3" class="fil3" d="M4762 4240c0,7 -7,10 -20,10l-169 0c-11,0 -16,-3 -16,-9 0,-4 2,-7 5,-9 3,-2 7,-4 11,-9 4,-4 8,-11 10,-20 3,-9 4,-23 4,-42l0 -623c0,-16 -4,-28 -12,-37 -8,-9 -17,-15 -29,-17l-42 -7c-5,-1 -9,-2 -13,-4 -4,-2 -6,-5 -6,-9 0,-7 7,-10 20,-10l158 0c11,0 17,5 17,15l-5 81 0 615c0,16 4,28 12,37 8,9 17,15 29,18l27 7c5,2 9,3 13,6 4,2 6,5 6,8z"/>
  <path id="4" class="fil3" d="M5291 4106c0,31 -5,57 -15,77 -10,20 -24,36 -41,48 -17,12 -37,20 -60,24 -23,4 -47,7 -73,7 -34,0 -68,-3 -100,-9 -32,-6 -57,-11 -73,-15 -10,-2 -15,-8 -16,-16 -1,-9 -1,-19 -2,-31 0,-11 -1,-23 -3,-34 -1,-11 -2,-22 -2,-34 -1,-12 -2,-22 -4,-31 -1,-4 -1,-8 1,-10 1,-3 4,-4 8,-4 7,0 12,4 13,13 9,25 19,46 31,62 12,16 26,29 41,38 16,9 33,15 53,19 20,4 42,6 67,6 11,0 23,-2 36,-5 12,-3 23,-8 34,-15 10,-7 19,-15 25,-25 7,-10 10,-21 10,-34 0,-21 -8,-39 -23,-52 -15,-13 -34,-25 -56,-36 -22,-10 -47,-20 -73,-29 -27,-9 -51,-20 -73,-32 -22,-13 -41,-28 -56,-47 -15,-19 -23,-43 -23,-72 0,-20 3,-40 9,-58 6,-18 16,-33 29,-46 13,-13 31,-23 53,-30 22,-7 48,-11 79,-11 16,0 34,1 54,2 20,2 38,3 54,5 20,2 39,5 59,7 8,2 12,6 12,12l2 121c0,2 0,6 -1,9 0,4 -3,6 -7,6 -3,0 -7,-4 -10,-11 -7,-23 -16,-41 -26,-56 -10,-14 -22,-25 -36,-33 -13,-8 -29,-13 -47,-15 -18,-2 -39,-4 -62,-4 -27,0 -50,6 -68,18 -18,12 -28,31 -28,55 0,18 8,33 23,44 15,11 34,22 57,32 23,10 48,20 75,29 27,10 52,22 75,36 23,14 42,31 57,50 15,20 23,44 23,75z"/>
  <path id="5" class="fil3" d="M5810 3845c-2,13 -6,20 -12,20 -7,0 -11,-4 -12,-13 -2,-9 -4,-16 -6,-22 -7,-15 -16,-25 -27,-30 -11,-5 -27,-8 -45,-8 -21,0 -41,6 -58,17 -18,11 -32,25 -42,42 -4,7 -8,15 -10,24 -3,10 -4,19 -4,28l0 261c0,16 4,28 12,37 8,9 17,15 29,18l26 7c13,4 20,9 20,13 0,7 -7,10 -20,10l-219 0c-13,0 -20,-3 -20,-9 0,-6 7,-11 20,-15l26 -7c11,-3 21,-9 28,-18 7,-9 11,-21 11,-37l0 -344c0,-16 -4,-28 -12,-37 -8,-9 -17,-15 -29,-17l-38 -7c-13,-3 -20,-8 -20,-13 0,-7 7,-10 20,-10l122 0c11,0 17,5 20,15l18 58c2,4 4,6 9,6 2,0 4,-1 6,-4 38,-58 92,-87 160,-87 7,0 14,1 21,2 8,2 14,3 20,5 4,2 9,4 13,7 5,3 7,7 6,12l-12 97z"/>
  <path id="6" class="fil3" d="M6518 4240c0,7 -7,10 -20,10l-124 0c-9,0 -16,-4 -20,-13l-20 -43c-2,-2 -4,-4 -6,-5 -2,-1 -4,0 -6,4 -21,28 -46,46 -75,56 -29,9 -55,14 -78,14 -51,0 -93,-17 -125,-50 -32,-33 -48,-81 -48,-145l0 -246c0,-16 -4,-28 -12,-37 -8,-9 -17,-15 -29,-18l-26 -7c-13,-4 -20,-9 -20,-13 0,-7 7,-10 20,-10l169 0c11,0 16,3 16,9 0,4 -2,7 -5,9 -3,2 -7,4 -11,9 -4,4 -8,11 -10,21 -3,10 -4,27 -4,51l0 254c0,36 10,63 30,82 20,19 48,28 84,28 12,0 26,-2 42,-7 16,-4 30,-11 43,-20 13,-9 25,-19 34,-30 9,-11 14,-24 14,-39l0 -280c0,-16 -4,-28 -12,-37 -8,-9 -17,-15 -29,-18l-26 -7c-13,-4 -20,-9 -20,-13 0,-7 7,-10 20,-10l143 0c11,0 16,5 16,15l-5 81 0 334c0,16 4,28 12,37 8,9 18,15 29,17l34 7c6,2 11,3 15,6 4,2 6,5 6,8z"/>
  <path id="7" class="fil3" d="M7200 4240c0,7 -7,10 -20,10l-169 0c-11,0 -16,-3 -16,-9 0,-4 2,-7 5,-9 3,-2 7,-4 11,-9 4,-4 8,-11 10,-20 3,-9 4,-23 4,-42l0 -263c0,-36 -10,-63 -30,-82 -20,-19 -48,-28 -84,-28 -13,0 -27,2 -43,7 -16,4 -30,11 -43,20 -13,9 -25,19 -34,30 -9,11 -13,24 -13,39l0 280c0,16 4,28 12,37 8,9 17,15 29,18l26 7c5,2 9,3 13,6 4,2 6,5 6,8 0,7 -7,10 -20,10l-219 0c-13,0 -20,-3 -20,-9 0,-6 7,-11 20,-15l26 -7c11,-3 21,-9 28,-18 7,-9 11,-21 11,-37l0 -626c0,-16 -4,-28 -12,-37 -8,-9 -17,-15 -29,-17l-50 -7c-5,-1 -9,-2 -13,-4 -4,-2 -6,-5 -6,-9 0,-7 7,-10 20,-10l167 0c11,0 17,5 17,15l-5 81 0 239c0,4 1,6 4,7 2,0 4,0 6,-2 21,-28 46,-46 75,-56 29,-9 55,-14 78,-14 51,0 93,17 125,50 32,33 48,81 48,145l0 246c0,16 4,28 12,37 8,9 17,15 29,18l27 7c5,2 9,3 13,6 4,2 6,5 6,8z"/>
  <path id="8" class="fil3" d="M7654 3902c0,-47 -11,-81 -32,-103 -22,-22 -46,-34 -74,-34 -35,0 -64,14 -87,43 -23,29 -38,68 -44,117 -2,15 4,22 18,22 11,1 22,1 33,1l54 0 37 0c11,0 23,0 36,-1 13,-1 22,-2 29,-5 11,-3 19,-8 24,-15 4,-7 7,-15 7,-25zm96 51c0,9 -3,17 -9,25 -6,8 -12,12 -20,12l-283 0c-7,0 -13,2 -18,7 -6,5 -8,11 -7,17 2,36 7,66 17,91 10,24 22,44 37,59 15,15 31,25 49,32 18,7 36,10 53,10 12,0 25,-2 38,-7 13,-4 26,-10 37,-17 12,-7 22,-15 32,-23 9,-9 17,-17 23,-26 2,-5 6,-6 10,-4l20 16c2,3 3,7 2,10 -16,31 -41,57 -74,77 -33,20 -70,31 -112,31 -28,0 -55,-5 -82,-15 -27,-10 -51,-26 -73,-48 -22,-22 -39,-50 -53,-85 -13,-34 -20,-76 -20,-125 0,-40 6,-77 19,-110 12,-33 29,-61 51,-85 21,-23 46,-41 74,-54 28,-13 57,-19 88,-19 24,0 48,4 72,13 24,9 46,22 65,40 19,18 35,42 47,72 12,29 18,65 18,105z"/>
  <g id="_1009863360">
   <path class="fil1 str1" d="M2544 4535l-85 1124c-168,-13 -332,-63 -478,-148l563 -976z"/>
   <path class="fil1 str1" d="M2409 4451l-636 930c-139,-95 -256,-221 -340,-367l976 -563z"/>
   <path class="fil1 str1" d="M2334 4311l-1016 488c-73,-152 -111,-319 -111,-488l1127 0z"/>
  </g>
  <path class="fil4" d="M2502 3551c24,-42 63,-87 87,-129 -10,69 23,95 76,95 -19,6 -31,15 -50,20 -42,-9 -84,9 -113,14z"/>
 </g>
</svg>
